{
  "name": "Price History",
  "version": "0.0.1",
  "description": "",
  "title": "apiDoc for price_history",
  "sampleUrl": false,
  "defaultVersion": "0.0.0",
  "apidoc": "0.3.0",
  "generator": {
    "name": "apidoc",
    "time": "2020-06-18T15:13:24.124Z",
    "url": "http://apidocjs.com",
    "version": "0.23.0"
  }
}
